<svg xmlns="http://www.w3.org/2000/svg" width="18" height="18" viewBox="0 0 18 18">
    <path fill="#000" fill-rule="nonzero" d="M10.929 3.874V.643a.643.643 0 0 1 1.12-.43l5.786 6.428c.212.236.22.59.02.836L12.07 14.55a.643.643 0 0 1-1.14-.406V10.94c-5.079.165-8.248 2.336-9.677 6.621A.643.643 0 0 1 0 17.358C0 9.787 4.557 4.225 10.929 3.874z"/>
</svg>
